<svg width="22" height="24" viewBox="0 0 22 24" fill="none" xmlns="http://www.w3.org/2000/svg">
<path d="M21.9937 5.81639C21.7538 4.7078 21.047 3.8347 20.1495 3.53841C18.5228 3 12 3 12 3C12 3 5.47711 3 3.85037 3.53841C2.95291 3.83475 2.24609 4.7078 2.00619 5.81639C1.57031 7.82578 1.57031 12.0182 1.57031 12.0182C1.57031 12.0182 1.57031 16.2106 2.00619 18.22C2.24609 19.3286 2.95291 20.1653 3.85037 20.4616C5.47711 21 12 21 12 21C12 21 18.5228 21 20.1495 20.4616C21.047 20.1653 21.7538 19.3286 21.9937 18.22C22.4296 16.2106 22.4296 12.0182 22.4296 12.0182C22.4296 12.0182 22.4296 7.82578 21.9937 5.81639ZM9.8666 15.8246V8.2118L15.3184 12.0183L9.8666 15.8246Z" fill="#292929"/>
</svg>
