<svg width="5" height="8" viewBox="0 0 5 8" fill="none" xmlns="http://www.w3.org/2000/svg">
<path d="M1 1L3.64645 3.64645C3.84171 3.84171 3.84171 4.15829 3.64645 4.35355L1 7" stroke="#666666" stroke-width="1.2" stroke-linecap="round" stroke-linejoin="round"/>
</svg>
